Verilator/MemCtrl/TB_memctrl.vcd
$version Generated by VerilatedVcd $end
$timescale 100ps $end
 $scope module $rootio $end
 $upscope $end
 $scope module TB_memctrl $end
  $var wire 32 R CLK_PERIOD [31:0] $end
  $var wire 32 S RAM_WIDTH [31:0] $end
  $var wire 32 S RAM_DEPTH [31:0] $end
  $var wire 1 J clk $end
  $var wire 1 # rstn $end
  $var wire 1 $ rd_enable $end
  $var wire 1 B mem_rd $end
  $var wire 1 % wr_enable $end
  $var wire 1 C mem_wr $end
  $var wire 3 & read_address [2:0] $end
  $var wire 3 ' write_address [2:0] $end
  $var wire 3 D mem_addr [2:0] $end
  $var wire 8 ( write_data [7:0] $end
  $var wire 8 E mem_wr_data [7:0] $end
  $var wire 8 F read_data [7:0] $end
  $var wire 8 K mem_rd_data [7:0] $end
  $var wire 1 G rd_valid $end
  $var wire 1 H wr_done $end
  $var wire 8 ) reference_memory[0] [7:0] $end
  $var wire 8 * reference_memory[1] [7:0] $end
  $var wire 8 + reference_memory[2] [7:0] $end
  $var wire 8 , reference_memory[3] [7:0] $end
  $var wire 8 - reference_memory[4] [7:0] $end
  $var wire 8 . reference_memory[5] [7:0] $end
  $var wire 8 / reference_memory[6] [7:0] $end
  $var wire 8 0 reference_memory[7] [7:0] $end
  $var wire 32 1 i [31:0] $end
  $var wire 32 2 errors [31:0] $end
  $var wire 32 3 test_number [31:0] $end
  $var wire 32 4 random_seed [31:0] $end
  $var wire 32 L assertion_errors [31:0] $end
  $var wire 3 5 back_to_back_operations__Vstatic__addr [2:0] $end
  $var wire 8 6 back_to_back_operations__Vstatic__data [7:0] $end
  $var wire 3 T test_read_write_conflicts__Vstatic__addr [2:0] $end
  $var wire 8 U test_read_write_conflicts__Vstatic__data [7:0] $end
  $scope module DUT $end
   $var wire 32 V RAM_WIDTH [31:0] $end
   $var wire 32 V RAM_DEPTH [31:0] $end
   $var wire 1 $ cntlr_rd_i $end
   $var wire 3 & cntlr_raddr_i [2:0] $end
   $var wire 8 F cntlr_rd_data_o [7:0] $end
   $var wire 1 G cntlr_rd_valid_o $end
   $var wire 1 % cntlr_wr_i $end
   $var wire 3 ' cntlr_waddr_i [2:0] $end
   $var wire 8 ( cntlr_wr_data_i [7:0] $end
   $var wire 1 H cntlr_wr_done_o $end
   $var wire 1 J clk_i $end
   $var wire 1 # rstn_i $end
   $var wire 1 B mem_rd_o $end
   $var wire 1 C mem_wr_o $end
   $var wire 3 D mem_addr_o [2:0] $end
   $var wire 8 E mem_wr_data_o [7:0] $end
   $var wire 8 K mem_rd_data_i [7:0] $end
   $var wire 3 M current_state [2:0] $end
   $var wire 3 I next_state [2:0] $end
   $var wire 2 N wait_cycles [1:0] $end
  $upscope $end
  $scope module MEM $end
   $var wire 32 S RAM_WIDTH [31:0] $end
   $var wire 32 S RAM_DEPTH [31:0] $end
   $var wire 128 W RAM_PERFORMANCE [127:0] $end
   $var wire 8 [ INIT_FILE [7:0] $end
   $var wire 3 D addra [2:0] $end
   $var wire 8 E dina [7:0] $end
   $var wire 1 J clka $end
   $var wire 1 C wea $end
   $var wire 1 O ena $end
   $var wire 1 7 rsta $end
   $var wire 1 \ regcea $end
   $var wire 8 K douta [7:0] $end
   $var wire 8 : BRAM[0] [7:0] $end
   $var wire 8 ; BRAM[1] [7:0] $end
   $var wire 8 < BRAM[2] [7:0] $end
   $var wire 8 = BRAM[3] [7:0] $end
   $var wire 8 > BRAM[4] [7:0] $end
   $var wire 8 ? BRAM[5] [7:0] $end
   $var wire 8 @ BRAM[6] [7:0] $end
   $var wire 8 A BRAM[7] [7:0] $end
   $var wire 8 P ram_data [7:0] $end
   $scope module init_bram_to_zero $end
    $var wire 32 Q ram_index [31:0] $end
   $upscope $end
   $scope module output_register $end
    $var wire 8 K douta_reg [7:0] $end
   $upscope $end
  $upscope $end
  $scope module unnamedblk1 $end
   $var wire 3 8 addr [2:0] $end
   $var wire 8 9 data [7:0] $end
  $upscope $end
 $upscope $end
$enddefinitions $end


#0
0#
0$
0%
b000 &
b000 '
b00000000 (
b00000000 )
b00000000 *
b00000000 +
b00000000 ,
b00000000 -
b00000000 .
b00000000 /
b00000000 0
b00000000000000000000000000000000 1
b00000000000000000000000000000000 2
b00000000000000000000000000000001 3
b00010010001101000101011001111000 4
b000 5
b00000000 6
17
b000 8
b00000000 9
b00000000 :
b00000000 ;
b00000000 <
b00000000 =
b00000000 >
b00000000 ?
b00000000 @
b00000000 A
0B
0C
b000 D
b00000000 E
b00000000 F
0G
0H
b000 I
0J
b00000000 K
b00000000000000000000000000000000 L
b000 M
b00 N
0O
b00000000 P
b00000000000000000000000000001000 Q
b00000000000000000000000000001010 R
b00000000000000000000000000001000 S
b000 T
b00000000 U
b00000000000000000000000000001000 V
b01001000010010010100011101001000010111110101000001000101010100100100011001001111010100100100110101000001010011100100001101000101 W
b00000000 [
1\
#50
1J
#100
0J
#150
1J
#200
1#
07
0J
#250
1J
#300
0J
#350
1J
#400
0J
#450
1%
b10101101 (
1C
b10101101 E
b101 I
1J
b100 M
1O
#500
0J
#550
0%
b10101101 :
1J
b101 M
#600
0J
#650
b110 I
1J
b01 N
b10101101 P
#700
0J
#750
0C
b00000000 E
1H
b000 I
1J
b10101101 K
b110 M
b10 N
0O
#800
0J
#850
b10101101 )
b00000000000000000000000000000001 1
0H
1J
b000 M
b00 N
#900
0J
#950
1%
b001 '
b10101110 (
1C
b001 D
b10101110 E
b101 I
1J
b100 M
1O
#1000
0J
#1050
0%
b10101110 ;
1J
b101 M
b00000000 P
#1100
0J
#1150
b110 I
1J
b00000000 K
b01 N
b10101110 P
#1200
0J
#1250
0C
b000 D
b00000000 E
1H
b000 I
1J
b10101110 K
b110 M
b10 N
0O
#1300
0J
#1350
b10101110 *
b00000000000000000000000000000010 1
0H
1J
b000 M
b00 N
#1400
0J
#1450
1%
b010 '
b10101111 (
1C
b010 D
b10101111 E
b101 I
1J
b100 M
1O
#1500
0J
#1550
0%
b10101111 <
1J
b101 M
b00000000 P
#1600
0J
#1650
b110 I
1J
b00000000 K
b01 N
b10101111 P
#1700
0J
#1750
0C
b000 D
b00000000 E
1H
b000 I
1J
b10101111 K
b110 M
b10 N
0O
#1800
0J
#1850
b10101111 +
b00000000000000000000000000000011 1
0H
1J
b000 M
b00 N
#1900
0J
#1950
1%
b011 '
b10110000 (
1C
b011 D
b10110000 E
b101 I
1J
b100 M
1O
#2000
0J
#2050
0%
b10110000 =
1J
b101 M
b00000000 P
#2100
0J
#2150
b110 I
1J
b00000000 K
b01 N
b10110000 P
#2200
0J
#2250
0C
b000 D
b00000000 E
1H
b000 I
1J
b10110000 K
b110 M
b10 N
0O
#2300
0J
#2350
b10110000 ,
b00000000000000000000000000000100 1
0H
1J
b000 M
b00 N
#2400
0J
#2450
1%
b100 '
b10110001 (
1C
b100 D
b10110001 E
b101 I
1J
b100 M
1O
#2500
0J
#2550
0%
b10110001 >
1J
b101 M
b00000000 P
#2600
0J
#2650
b110 I
1J
b00000000 K
b01 N
b10110001 P
#2700
0J
#2750
0C
b000 D
b00000000 E
1H
b000 I
1J
b10110001 K
b110 M
b10 N
0O
#2800
0J
#2850
b10110001 -
b00000000000000000000000000000101 1
0H
1J
b000 M
b00 N
#2900
0J
#2950
1%
b101 '
b10110010 (
1C
b101 D
b10110010 E
b101 I
1J
b100 M
1O
#3000
0J
#3050
0%
b10110010 ?
1J
b101 M
b00000000 P
#3100
0J
#3150
b110 I
1J
b00000000 K
b01 N
b10110010 P
#3200
0J
#3250
0C
b000 D
b00000000 E
1H
b000 I
1J
b10110010 K
b110 M
b10 N
0O
#3300
0J
#3350
b10110010 .
b00000000000000000000000000000110 1
0H
1J
b000 M
b00 N
#3400
0J
#3450
1%
b110 '
b10110011 (
1C
b110 D
b10110011 E
b101 I
1J
b100 M
1O
#3500
0J
#3550
0%
b10110011 @
1J
b101 M
b00000000 P
#3600
0J
#3650
b110 I
1J
b00000000 K
b01 N
b10110011 P
#3700
0J
#3750
0C
b000 D
b00000000 E
1H
b000 I
1J
b10110011 K
b110 M
b10 N
0O
#3800
0J
#3850
b10110011 /
b00000000000000000000000000000111 1
0H
1J
b000 M
b00 N
#3900
0J
#3950
1%
b111 '
b10110100 (
1C
b111 D
b10110100 E
b101 I
1J
b100 M
1O
#4000
0J
#4050
0%
b10110100 A
1J
b101 M
b00000000 P
#4100
0J
#4150
b110 I
1J
b00000000 K
b01 N
b10110100 P
#4200
0J
#4250
0C
b000 D
b00000000 E
1H
b000 I
1J
b10110100 K
b110 M
b10 N
0O
#4300
0J
#4350
b10110100 0
b00000000000000000000000000001000 1
0H
1J
b000 M
b00 N
#4400
0J
#4450
1$
1B
b010 I
1J
b001 M
1O
#4500
0J
#4550
0$
1J
b010 M
b10101101 P
#4600
0J
#4650
1J
b10101101 K
b01 N
#4700
0J
#4750
b011 I
1J
b10 N
#4800
0J
#4850
0B
b10101101 F
1G
b000 I
1J
b011 M
b11 N
0O
#4900
0J
#4950
b00000000000000000000000000000001 1
b00000000 F
0G
1J
b000 M
b00 N
#5000
0J
#5050
1$
b001 &
1B
b001 D
b010 I
1J
b001 M
1O
#5100
0J
#5150
0$
1J
b010 M
b10101110 P
#5200
0J
#5250
1J
b10101110 K
b01 N
#5300
0J
#5350
b011 I
1J
b10 N
#5400
0J
#5450
0B
b000 D
b10101110 F
1G
b000 I
1J
b011 M
b11 N
0O
#5500
0J
#5550
b00000000000000000000000000000010 1
b00000000 F
0G
1J
b000 M
b00 N
#5600
0J
#5650
1$
b010 &
1B
b010 D
b010 I
1J
b001 M
1O
#5700
0J
#5750
0$
1J
b010 M
b10101111 P
#5800
0J
#5850
1J
b10101111 K
b01 N
#5900
0J
#5950
b011 I
1J
b10 N
#6000
0J
#6050
0B
b000 D
b10101111 F
1G
b000 I
1J
b011 M
b11 N
0O
#6100
0J
#6150
b00000000000000000000000000000011 1
b00000000 F
0G
1J
b000 M
b00 N
#6200
0J
#6250
1$
b011 &
1B
b011 D
b010 I
1J
b001 M
1O
#6300
0J
#6350
0$
1J
b010 M
b10110000 P
#6400
0J
#6450
1J
b10110000 K
b01 N
#6500
0J
#6550
b011 I
1J
b10 N
#6600
0J
#6650
0B
b000 D
b10110000 F
1G
b000 I
1J
b011 M
b11 N
0O
#6700
0J
#6750
b00000000000000000000000000000100 1
b00000000 F
0G
1J
b000 M
b00 N
#6800
0J
#6850
1$
b100 &
1B
b100 D
b010 I
1J
b001 M
1O
#6900
0J
#6950
0$
1J
b010 M
b10110001 P
#7000
0J
#7050
1J
b10110001 K
b01 N
#7100
0J
#7150
b011 I
1J
b10 N
#7200
0J
#7250
0B
b000 D
b10110001 F
1G
b000 I
1J
b011 M
b11 N
0O
#7300
0J
#7350
b00000000000000000000000000000101 1
b00000000 F
0G
1J
b000 M
b00 N
#7400
0J
#7450
1$
b101 &
1B
b101 D
b010 I
1J
b001 M
1O
#7500
0J
#7550
0$
1J
b010 M
b10110010 P
#7600
0J
#7650
1J
b10110010 K
b01 N
#7700
0J
#7750
b011 I
1J
b10 N
#7800
0J
#7850
0B
b000 D
b10110010 F
1G
b000 I
1J
b011 M
b11 N
0O
#7900
0J
#7950
b00000000000000000000000000000110 1
b00000000 F
0G
1J
b000 M
b00 N
#8000
0J
#8050
1$
b110 &
1B
b110 D
b010 I
1J
b001 M
1O
#8100
0J
#8150
0$
1J
b010 M
b10110011 P
#8200
0J
#8250
1J
b10110011 K
b01 N
#8300
0J
#8350
b011 I
1J
b10 N
#8400
0J
#8450
0B
b000 D
b10110011 F
1G
b000 I
1J
b011 M
b11 N
0O
#8500
0J
#8550
b00000000000000000000000000000111 1
b00000000 F
0G
1J
b000 M
b00 N
#8600
0J
#8650
1$
b111 &
1B
b111 D
b010 I
1J
b001 M
1O
#8700
0J
#8750
0$
1J
b010 M
b10110100 P
#8800
0J
#8850
1J
b10110100 K
b01 N
#8900
0J
#8950
b011 I
1J
b10 N
#9000
0J
#9050
0B
b000 D
b10110100 F
1G
b000 I
1J
b011 M
b11 N
0O
#9100
0J
#9150
b00000000000000000000000000000000 1
b00000000000000000000000000000010 3
b01001000110100010101100111100000 4
b011 8
b01010110 9
b00000000 F
0G
1J
b000 M
b00 N
#9200
0J
#9250
1%
b011 '
b01010110 (
1C
b011 D
b01010110 E
b101 I
1J
b100 M
1O
#9300
0J
#9350
0%
b01010110 =
1J
b101 M
b10110000 P
#9400
0J
#9450
b110 I
1J
b10110000 K
b01 N
b01010110 P
#9500
0J
#9550
0C
b000 D
b00000000 E
1H
b000 I
1J
b01010110 K
b110 M
b10 N
0O
#9600
0J
#9650
b01010110 ,
0H
1J
b000 M
b00 N
#9700
0J
#9750
1$
b011 &
1B
b011 D
b010 I
1J
b001 M
1O
#9800
0J
#9850
0$
1J
b010 M
#9900
0J
#9950
1J
b01 N
#10000
0J
#10050
b011 I
1J
b10 N
#10100
0J
#10150
0B
b000 D
b01010110 F
1G
b000 I
1J
b011 M
b11 N
0O
#10200
0J
#10250
b00000000000000000000000000000001 1
b00100011010001010110011110000000 4
b100 8
b01011001 9
b00000000 F
0G
1J
b000 M
b00 N
#10300
0J
#10350
1%
b100 '
b01011001 (
1C
b100 D
b01011001 E
b101 I
1J
b100 M
1O
#10400
0J
#10450
0%
b01011001 >
1J
b101 M
b10110001 P
#10500
0J
#10550
b110 I
1J
b10110001 K
b01 N
b01011001 P
#10600
0J
#10650
0C
b000 D
b00000000 E
1H
b000 I
1J
b01011001 K
b110 M
b10 N
0O
#10700
0J
#10750
b01011001 -
0H
1J
b000 M
b00 N
#10800
0J
#10850
1$
b100 &
1B
b100 D
b010 I
1J
b001 M
1O
#10900
0J
#10950
0$
1J
b010 M
#11000
0J
#11050
1J
b01 N
#11100
0J
#11150
b011 I
1J
b10 N
#11200
0J
#11250
0B
b000 D
b01011001 F
1G
b000 I
1J
b011 M
b11 N
0O
#11300
0J
#11350
b00000000000000000000000000000010 1
b10001101000101011001111000000000 4
b011 8
b01100111 9
b00000000 F
0G
1J
b000 M
b00 N
#11400
0J
#11450
1%
b011 '
b01100111 (
1C
b011 D
b01100111 E
b101 I
1J
b100 M
1O
#11500
0J
#11550
0%
b01100111 =
1J
b101 M
b01010110 P
#11600
0J
#11650
b110 I
1J
b01010110 K
b01 N
b01100111 P
#11700
0J
#11750
0C
b000 D
b00000000 E
1H
b000 I
1J
b01100111 K
b110 M
b10 N
0O
#11800
0J
#11850
b01100111 ,
0H
1J
b000 M
b00 N
#11900
0J
#11950
1$
b011 &
1B
b011 D
b010 I
1J
b001 M
1O
#12000
0J
#12050
0$
1J
b010 M
#12100
0J
#12150
1J
b01 N
#12200
0J
#12250
b011 I
1J
b10 N
#12300
0J
#12350
0B
b000 D
b01100111 F
1G
b000 I
1J
b011 M
b11 N
0O
#12400
0J
#12450
b00000000000000000000000000000011 1
b00110100010101100111100000000000 4
b111 8
b10011110 9
b00000000 F
0G
1J
b000 M
b00 N
#12500
0J
#12550
1%
b111 '
b10011110 (
1C
b111 D
b10011110 E
b101 I
1J
b100 M
1O
#12600
0J
#12650
0%
b10011110 A
1J
b101 M
b10110100 P
#12700
0J
#12750
b110 I
1J
b10110100 K
b01 N
b10011110 P
#12800
0J
#12850
0C
b000 D
b00000000 E
1H
b000 I
1J
b10011110 K
b110 M
b10 N
0O
#12900
0J
#12950
b10011110 0
0H
1J
b000 M
b00 N
#13000
0J
#13050
1$
b111 &
1B
b111 D
b010 I
1J
b001 M
1O
#13100
0J
#13150
0$
1J
b010 M
#13200
0J
#13250
1J
b01 N
#13300
0J
#13350
b011 I
1J
b10 N
#13400
0J
#13450
0B
b000 D
b10011110 F
1G
b000 I
1J
b011 M
b11 N
0O
#13500
0J
#13550
b00000000000000000000000000000100 1
b11010001010110011110000000000000 4
b100 8
b01111000 9
b00000000 F
0G
1J
b000 M
b00 N
#13600
0J
#13650
1%
b100 '
b01111000 (
1C
b100 D
b01111000 E
b101 I
1J
b100 M
1O
#13700
0J
#13750
0%
b01111000 >
1J
b101 M
b01011001 P
#13800
0J
#13850
b110 I
1J
b01011001 K
b01 N
b01111000 P
#13900
0J
#13950
0C
b000 D
b00000000 E
1H
b000 I
1J
b01111000 K
b110 M
b10 N
0O
#14000
0J
#14050
b01111000 -
0H
1J
b000 M
b00 N
#14100
0J
#14150
1$
b100 &
1B
b100 D
b010 I
1J
b001 M
1O
#14200
0J
#14250
0$
1J
b010 M
#14300
0J
#14350
1J
b01 N
#14400
0J
#14450
b011 I
1J
b10 N
#14500
0J
#14550
0B
b000 D
b01111000 F
1G
b000 I
1J
b011 M
b11 N
0O
#14600
0J
#14650
b00000000000000000000000000000101 1
b01000101011001111000000000000000 4
b000 8
b11100000 9
b00000000 F
0G
1J
b000 M
b00 N
#14700
0J
#14750
1%
b000 '
b11100000 (
1C
b11100000 E
b101 I
1J
b100 M
1O
#14800
0J
#14850
0%
b11100000 :
1J
b101 M
b10101101 P
#14900
0J
#14950
b110 I
1J
b10101101 K
b01 N
b11100000 P
#15000
0J
#15050
0C
b00000000 E
1H
b000 I
1J
b11100000 K
b110 M
b10 N
0O
#15100
0J
#15150
b11100000 )
0H
1J
b000 M
b00 N
#15200
0J
#15250
1$
b000 &
1B
b010 I
1J
b001 M
1O
#15300
0J
#15350
0$
1J
b010 M
#15400
0J
#15450
1J
b01 N
#15500
0J
#15550
b011 I
1J
b10 N
#15600
0J
#15650
0B
b11100000 F
1G
b000 I
1J
b011 M
b11 N
0O
#15700
0J
#15750
b00000000000000000000000000000110 1
b11101010011000011111111111111100 4
b111 8
b01111111 9
b00000000 F
0G
1J
b000 M
b00 N
#15800
0J
#15850
1%
b111 '
b01111111 (
1C
b111 D
b01111111 E
b101 I
1J
b100 M
1O
#15900
0J
#15950
0%
b01111111 A
1J
b101 M
b10011110 P
#16000
0J
#16050
b110 I
1J
b10011110 K
b01 N
b01111111 P
#16100
0J
#16150
0C
b000 D
b00000000 E
1H
b000 I
1J
b01111111 K
b110 M
b10 N
0O
#16200
0J
#16250
b01111111 0
0H
1J
b000 M
b00 N
#16300
0J
#16350
1$
b111 &
1B
b111 D
b010 I
1J
b001 M
1O
#16400
0J
#16450
0$
1J
b010 M
#16500
0J
#16550
1J
b01 N
#16600
0J
#16650
b011 I
1J
b10 N
#16700
0J
#16750
0B
b000 D
b01111111 F
1G
b000 I
1J
b011 M
b11 N
0O
#16800
0J
#16850
b00000000000000000000000000000111 1
b10101001100001111111111111110000 4
b11111111 9
b00000000 F
0G
1J
b000 M
b00 N
#16900
0J
#16950
1%
b11111111 (
1C
b111 D
b11111111 E
b101 I
1J
b100 M
1O
#17000
0J
#17050
0%
b11111111 A
1J
b101 M
#17100
0J
#17150
b110 I
1J
b01 N
b11111111 P
#17200
0J
#17250
0C
b000 D
b00000000 E
1H
b000 I
1J
b11111111 K
b110 M
b10 N
0O
#17300
0J
#17350
b11111111 0
0H
1J
b000 M
b00 N
#17400
0J
#17450
1$
1B
b111 D
b010 I
1J
b001 M
1O
#17500
0J
#17550
0$
1J
b010 M
#17600
0J
#17650
1J
b01 N
#17700
0J
#17750
b011 I
1J
b10 N
#17800
0J
#17850
0B
b000 D
b11111111 F
1G
b000 I
1J
b011 M
b11 N
0O
#17900
0J
#17950
b00000000000000000000000000001000 1
b10100110000111111111111111000000 4
b00000000 F
0G
1J
b000 M
b00 N
#18000
0J
#18050
1%
1C
b111 D
b11111111 E
b101 I
1J
b100 M
1O
#18100
0J
#18150
0%
1J
b101 M
#18200
0J
#18250
b110 I
1J
b01 N
#18300
0J
#18350
0C
b000 D
b00000000 E
1H
b000 I
1J
b110 M
b10 N
0O
#18400
0J
#18450
0H
1J
b000 M
b00 N
#18500
0J
#18550
1$
1B
b111 D
b010 I
1J
b001 M
1O
#18600
0J
#18650
0$
1J
b010 M
#18700
0J
#18750
1J
b01 N
#18800
0J
#18850
b011 I
1J
b10 N
#18900
0J
#18950
0B
b000 D
b11111111 F
1G
b000 I
1J
b011 M
b11 N
0O
#19000
0J
#19050
b00000000000000000000000000001001 1
b10011000011111111111111100000000 4
b00000000 F
0G
1J
b000 M
b00 N
#19100
0J
#19150
1%
1C
b111 D
b11111111 E
b101 I
1J
b100 M
1O
#19200
0J
#19250
0%
1J
b101 M
#19300
0J
#19350
b110 I
1J
b01 N
#19400
0J
#19450
0C
b000 D
b00000000 E
1H
b000 I
1J
b110 M
b10 N
0O
#19500
0J
#19550
0H
1J
b000 M
b00 N
#19600
0J
#19650
1$
1B
b111 D
b010 I
1J
b001 M
1O
#19700
0J
#19750
0$
1J
b010 M
#19800
0J
#19850
1J
b01 N
#19900
0J
#19950
b011 I
1J
b10 N
#20000
0J
#20050
0B
b000 D
b11111111 F
1G
b000 I
1J
b011 M
b11 N
0O
#20100
0J
#20150
b00000000000000000000000000001010 1
b01100001111111111111110000000000 4
b00000000 F
0G
1J
b000 M
b00 N
#20200
0J
#20250
1%
1C
b111 D
b11111111 E
b101 I
1J
b100 M
1O
#20300
0J
#20350
0%
1J
b101 M
#20400
0J
#20450
b110 I
1J
b01 N
#20500
0J
#20550
0C
b000 D
b00000000 E
1H
b000 I
1J
b110 M
b10 N
0O
#20600
0J
#20650
0H
1J
b000 M
b00 N
#20700
0J
#20750
1$
1B
b111 D
b010 I
1J
b001 M
1O
#20800
0J
#20850
0$
1J
b010 M
#20900
0J
#20950
1J
b01 N
#21000
0J
#21050
b011 I
1J
b10 N
#21100
0J
#21150
0B
b000 D
b11111111 F
1G
b000 I
1J
b011 M
b11 N
0O
#21200
0J
#21250
b00000000000000000000000000001011 1
b10000111111111111111000000000000 4
b110 8
b11111100 9
b00000000 F
0G
1J
b000 M
b00 N
#21300
0J
#21350
1%
b110 '
b11111100 (
1C
b110 D
b11111100 E
b101 I
1J
b100 M
1O
#21400
0J
#21450
0%
b11111100 @
1J
b101 M
b10110011 P
#21500
0J
#21550
b110 I
1J
b10110011 K
b01 N
b11111100 P
#21600
0J
#21650
0C
b000 D
b00000000 E
1H
b000 I
1J
b11111100 K
b110 M
b10 N
0O
#21700
0J
#21750
b11111100 /
0H
1J
b000 M
b00 N
#21800
0J
#21850
1$
b110 &
1B
b110 D
b010 I
1J
b001 M
1O
#21900
0J
#21950
0$
1J
b010 M
#22000
0J
#22050
1J
b01 N
#22100
0J
#22150
b011 I
1J
b10 N
#22200
0J
#22250
0B
b000 D
b11111100 F
1G
b000 I
1J
b011 M
b11 N
0O
#22300
0J
#22350
b00000000000000000000000000001100 1
b00011111111111111100000000000000 4
b000 8
b11110000 9
b00000000 F
0G
1J
b000 M
b00 N
#22400
0J
#22450
1%
b000 '
b11110000 (
1C
b11110000 E
b101 I
1J
b100 M
1O
#22500
0J
#22550
0%
b11110000 :
1J
b101 M
b11100000 P
#22600
0J
#22650
b110 I
1J
b11100000 K
b01 N
b11110000 P
#22700
0J
#22750
0C
b00000000 E
1H
b000 I
1J
b11110000 K
b110 M
b10 N
0O
#22800
0J
#22850
b11110000 )
0H
1J
b000 M
b00 N
#22900
0J
#22950
1$
b000 &
1B
b010 I
1J
b001 M
1O
#23000
0J
#23050
0$
1J
b010 M
#23100
0J
#23150
1J
b01 N
#23200
0J
#23250
b011 I
1J
b10 N
#23300
0J
#23350
0B
b11110000 F
1G
b000 I
1J
b011 M
b11 N
0O
#23400
0J
#23450
b00000000000000000000000000001101 1
b01111111111111110000000000000000 4
b11000000 9
b00000000 F
0G
1J
b000 M
b00 N
#23500
0J
#23550
1%
b11000000 (
1C
b11000000 E
b101 I
1J
b100 M
1O
#23600
0J
#23650
0%
b11000000 :
1J
b101 M
#23700
0J
#23750
b110 I
1J
b01 N
b11000000 P
#23800
0J
#23850
0C
b00000000 E
1H
b000 I
1J
b11000000 K
b110 M
b10 N
0O
#23900
0J
#23950
b11000000 )
0H
1J
b000 M
b00 N
#24000
0J
#24050
1$
1B
b010 I
1J
b001 M
1O
#24100
0J
#24150
0$
1J
b010 M
#24200
0J
#24250
1J
b01 N
#24300
0J
#24350
b011 I
1J
b10 N
#24400
0J
#24450
0B
b11000000 F
1G
b000 I
1J
b011 M
b11 N
0O
#24500
0J
#24550
b00000000000000000000000000001110 1
b11111111111111000000000000000000 4
b00000000 9
b00000000 F
0G
1J
b000 M
b00 N
#24600
0J
#24650
1%
b00000000 (
1C
b101 I
1J
b100 M
1O
#24700
0J
#24750
0%
b00000000 :
1J
b101 M
#24800
0J
#24850
b110 I
1J
b01 N
b00000000 P
#24900
0J
#24950
0C
1H
b000 I
1J
b00000000 K
b110 M
b10 N
0O
#25000
0J
#25050
b00000000 )
0H
1J
b000 M
b00 N
#25100
0J
#25150
1$
1B
b010 I
1J
b001 M
1O
#25200
0J
#25250
0$
1J
b010 M
#25300
0J
#25350
1J
b01 N
#25400
0J
#25450
b011 I
1J
b10 N
#25500
0J
#25550
0B
1G
b000 I
1J
b011 M
b11 N
0O
#25600
0J
#25650
b00000000000000000000000000001111 1
b11111111111100000000000000000000 4
0G
1J
b000 M
b00 N
#25700
0J
#25750
1%
1C
b101 I
1J
b100 M
1O
#25800
0J
#25850
0%
1J
b101 M
#25900
0J
#25950
b110 I
1J
b01 N
#26000
0J
#26050
0C
1H
b000 I
1J
b110 M
b10 N
0O
#26100
0J
#26150
0H
1J
b000 M
b00 N
#26200
0J
#26250
1$
1B
b010 I
1J
b001 M
1O
#26300
0J
#26350
0$
1J
b010 M
#26400
0J
#26450
1J
b01 N
#26500
0J
#26550
b011 I
1J
b10 N
#26600
0J
#26650
0B
1G
b000 I
1J
b011 M
b11 N
0O
#26700
0J
#26750
b00000000000000000000000000010000 1
b11111111110000000000000000000000 4
0G
1J
b000 M
b00 N
#26800
0J
#26850
1%
1C
b101 I
1J
b100 M
1O
#26900
0J
#26950
0%
1J
b101 M
#27000
0J
#27050
b110 I
1J
b01 N
#27100
0J
#27150
0C
1H
b000 I
1J
b110 M
b10 N
0O
#27200
0J
#27250
0H
1J
b000 M
b00 N
#27300
0J
#27350
1$
1B
b010 I
1J
b001 M
1O
#27400
0J
#27450
0$
1J
b010 M
#27500
0J
#27550
1J
b01 N
#27600
0J
#27650
b011 I
1J
b10 N
#27700
0J
#27750
0B
1G
b000 I
1J
b011 M
b11 N
0O
#27800
0J
#27850
b00000000000000000000000000010001 1
b00000000111111111111111111111110 4
b11111111 9
0G
1J
b000 M
b00 N
#27900
0J
#27950
1%
b11111111 (
1C
b11111111 E
b101 I
1J
b100 M
1O
#28000
0J
#28050
0%
b11111111 :
1J
b101 M
#28100
0J
#28150
b110 I
1J
b01 N
b11111111 P
#28200
0J
#28250
0C
b00000000 E
1H
b000 I
1J
b11111111 K
b110 M
b10 N
0O
#28300
0J
#28350
b11111111 )
0H
1J
b000 M
b00 N
#28400
0J
#28450
1$
1B
b010 I
1J
b001 M
1O
#28500
0J
#28550
0$
1J
b010 M
#28600
0J
#28650
1J
b01 N
#28700
0J
#28750
b011 I
1J
b10 N
#28800
0J
#28850
0B
b11111111 F
1G
b000 I
1J
b011 M
b11 N
0O
#28900
0J
#28950
b00000000000000000000000000010010 1
b00000011111111111111111111111000 4
b111 8
b00000000 F
0G
1J
b000 M
b00 N
#29000
0J
#29050
1%
b111 '
1C
b111 D
b11111111 E
b101 I
1J
b100 M
1O
#29100
0J
#29150
0%
1J
b101 M
#29200
0J
#29250
b110 I
1J
b01 N
#29300
0J
#29350
0C
b000 D
b00000000 E
1H
b000 I
1J
b110 M
b10 N
0O
#29400
0J
#29450
0H
1J
b000 M
b00 N
#29500
0J
#29550
1$
b111 &
1B
b111 D
b010 I
1J
b001 M
1O
#29600
0J
#29650
0$
1J
b010 M
#29700
0J
#29750
1J
b01 N
#29800
0J
#29850
b011 I
1J
b10 N
#29900
0J
#29950
0B
b000 D
b11111111 F
1G
b000 I
1J
b011 M
b11 N
0O
#30000
0J
#30050
b00000000000000000000000000010011 1
b00001111111111111111111111100000 4
b00000000 F
0G
1J
b000 M
b00 N
#30100
0J
#30150
1%
1C
b111 D
b11111111 E
b101 I
1J
b100 M
1O
#30200
0J
#30250
0%
1J
b101 M
#30300
0J
#30350
b110 I
1J
b01 N
#30400
0J
#30450
0C
b000 D
b00000000 E
1H
b000 I
1J
b110 M
b10 N
0O
#30500
0J
#30550
0H
1J
b000 M
b00 N
#30600
0J
#30650
1$
1B
b111 D
b010 I
1J
b001 M
1O
#30700
0J
#30750
0$
1J
b010 M
#30800
0J
#30850
1J
b01 N
#30900
0J
#30950
b011 I
1J
b10 N
#31000
0J
#31050
0B
b000 D
b11111111 F
1G
b000 I
1J
b011 M
b11 N
0O
#31100
0J
#31150
b00000000000000000000000000010100 1
b00111111111111111111111110000000 4
b00000000 F
0G
1J
b000 M
b00 N
#31200
0J
#31250
1%
1C
b111 D
b11111111 E
b101 I
1J
b100 M
1O
#31300
0J
#31350
0%
1J
b101 M
#31400
0J
#31450
b110 I
1J
b01 N
#31500
0J
#31550
0C
b000 D
b00000000 E
1H
b000 I
1J
b110 M
b10 N
0O
#31600
0J
#31650
0H
1J
b000 M
b00 N
#31700
0J
#31750
1$
1B
b111 D
b010 I
1J
b001 M
1O
#31800
0J
#31850
0$
1J
b010 M
#31900
0J
#31950
1J
b01 N
#32000
0J
#32050
b011 I
1J
b10 N
#32100
0J
#32150
0B
b000 D
b11111111 F
1G
b000 I
1J
b011 M
b11 N
0O
#32200
0J
#32250
b00000000000000000000000000010101 1
b11111111111111111111111000000000 4
b00000000 F
0G
1J
b000 M
b00 N
#32300
0J
#32350
1%
1C
b111 D
b11111111 E
b101 I
1J
b100 M
1O
#32400
0J
#32450
0%
1J
b101 M
#32500
0J
#32550
b110 I
1J
b01 N
#32600
0J
#32650
0C
b000 D
b00000000 E
1H
b000 I
1J
b110 M
b10 N
0O
#32700
0J
