VIVADO/MemCtrl/memctrl.sim/sim_1/behav/xsim/TB_memctrl.vcd
$date
   Mon Dec 30 22:54:14 2024
$end

$version
  2024.1
  $dumpfile ("TB_memctrl.vcd") 
$end

$timescale
  1ps
$end

$scope module TB_memctrl $end
$var reg 1 ! clk $end
$var reg 1 " rstn $end
$var reg 1 # rd_enable $end
$var reg 1 $ wr_enable $end
$var reg 3 % read_address [2:0] $end
$var reg 3 & write_address [2:0] $end
$var reg 3 ' mem_addr [2:0] $end
$var reg 8 ( write_data [7:0] $end
$var reg 8 ) mem_wr_data [7:0] $end
$var wire 8 * read_data [7:0] $end
$var wire 8 + mem_rd_data [7:0] $end
$var wire 1 , rd_valid $end
$var wire 1 - wr_done $end
$var integer 32 . i [31:0] $end
$var integer 32 / errors [31:0] $end
$var integer 32 0 test_number [31:0] $end
$var reg 32 1 random_seed [31:0] $end
$var reg 32 2 assertion_errors [31:0] $end
$var wire 1 3 mem_rd $end
$var wire 1 4 mem_wr $end
$scope module DUT $end
$var wire 1 5 cntlr_rd_i $end
$var wire 3 6 cntlr_raddr_i [2:0] $end
$var reg 8 7 cntlr_rd_data_o [7:0] $end
$var reg 1 8 cntlr_rd_valid_o $end
$var wire 1 9 cntlr_wr_i $end
$var wire 3 : cntlr_waddr_i [2:0] $end
$var wire 8 ; cntlr_wr_data_i [7:0] $end
$var reg 1 < cntlr_wr_done_o $end
$var wire 1 = clk_i $end
$var wire 1 > rstn_i $end
$var reg 1 ? mem_rd_o $end
$var reg 1 @ mem_wr_o $end
$var reg 3 ' mem_addr_o [2:0] $end
$var reg 8 ) mem_wr_data_o [7:0] $end
$var wire 8 + mem_rd_data_i [7:0] $end
$var reg 3 A current_state $end
$var reg 3 B next_state $end
$var reg 2 C wait_cycles [1:0] $end
$upscope $end
$scope module MEM $end
$var wire 3 D addra [2:0] $end
$var wire 8 E dina [7:0] $end
$var wire 1 F clka $end
$var wire 1 4 wea $end
$var wire 1 G ena $end
$var wire 1 H rsta $end
$var wire 1 I regcea $end
$var wire 8 + douta [7:0] $end
$var reg 8 J ram_data [7:0] $end
$var integer 32 K \init_bram_to_zero.ram_index  [31:0] $end
$var reg 8 L \output_register.douta_reg  [7:0] $end
$upscope $end
$scope task reset_dut $end
$upscope $end
$scope task write_to_memory $end
$var reg 3 M address [2:0] $end
$var reg 8 N data [7:0] $end
$upscope $end
$scope task read_and_verify $end
$var reg 3 O address [2:0] $end
$upscope $end
$scope task back_to_back_operations $end
$var reg 32 P num_ops [31:0] $end
$var reg 3 Q addr [2:0] $end
$var reg 8 R data [7:0] $end
$upscope $end
$scope task test_read_write_conflicts $end
$var reg 3 S addr [2:0] $end
$var reg 8 T data [7:0] $end
$upscope $end
$scope function xlnx_isim_covergroup_memory_coverage::new $end
$upscope $end
$scope function xlnx_isim_covergroup_memory_coverage::update $end
$upscope $end
$scope function xlnx_isim_covergroup_memory_coverage::xlnx_isim_covergroup_sample $end
$upscope $end
$upscope $end
$enddefinitions $end

#0
$dumpvars
0!
0"
0#
0$
b0 %
b0 &
b0 '
b0 (
b0 )
b0 *
b0 +
0,
0-
bx .
b0 /
b1 0
b10010001101000101011001111000 1
b0 2
03
04
05
b0 6
b0 7
08
09
b0 :
b0 ;
0<
0=
0>
0?
0@
b0 A
b0 B
b0 C
b0 D
b0 E
0F
0G
1H
1I
b0 J
b1000 K
b0 L
bx M
bx N
bx O
b0 P
bx Q
bx R
bx S
bx T
$end

#5000
1!
1=
1F

#10000
0!
0=
0F

#15000
1!
1=
1F

#20000
0!
1"
0=
1>
0F
0H

#25000
1!
1=
1F

#30000
0!
0=
0F

#35000
1!
1=
1F

#40000
0!
b0 .
0=
0F
b0 M
b10101101 N

#45000
1!
1$
b10101101 (
19
b10101101 ;
1=
b100 B
1F

#50000
0!
0=
0F

#55000
1!
0$
b10101101 )
14
09
1=
1@
b100 A
b101 B
b10101101 E
1F
1G

#60000
0!
0=
0F

#65000
1!
b10101101 )
1=
1@
b101 A
1F

#70000
0!
0=
0F

#75000
1!
b10101101 )
1=
1@
b110 B
b1 C
1F
b10101101 J

#80000
0!
0=
0F

#85000
1!
b0 )
b10101101 +
1-
04
1<
1=
0@
b110 A
b0 B
b10 C
b0 E
1F
0G
b10101101 L

#90000
0!
0=
0F

#95000
1!
0-
b1 .
0<
1=
b0 A
b0 C
1F
b1 M
b10101110 N

#100000
0!
0=
0F

#105000
1!
1$
b1 &
b10101110 (
19
b1 :
b10101110 ;
1=
b100 B
1F

#110000
0!
0=
0F

#115000
1!
0$
b1 '
b10101110 )
14
09
1=
1@
b100 A
b101 B
b1 D
b10101110 E
1F
1G

#120000
0!
0=
0F

#125000
1!
b1 '
b10101110 )
1=
1@
b101 A
1F
b0 J

#130000
0!
0=
0F

#135000
1!
b1 '
b10101110 )
b0 +
1=
1@
b110 B
b1 C
1F
b10101110 J
b0 L

#140000
0!
0=
0F

#145000
1!
b0 '
b0 )
b10101110 +
1-
04
1<
1=
0@
b110 A
b0 B
b10 C
b0 D
b0 E
1F
0G
b10101110 L

#150000
0!
0=
0F

#155000
1!
0-
b10 .
0<
1=
b0 A
b0 C
1F
b10 M
b10101111 N

#160000
0!
0=
0F

#165000
1!
1$
b10 &
b10101111 (
19
b10 :
b10101111 ;
1=
b100 B
1F

#170000
0!
0=
0F

#175000
1!
0$
b10 '
b10101111 )
14
09
1=
1@
b100 A
b101 B
b10 D
b10101111 E
1F
1G

#180000
0!
0=
0F

#185000
1!
b10 '
b10101111 )
1=
1@
b101 A
1F
b0 J

#190000
0!
0=
0F

#195000
1!
b10 '
b10101111 )
b0 +
1=
1@
b110 B
b1 C
1F
b10101111 J
b0 L

#200000
0!
0=
0F

#205000
1!
b0 '
b0 )
b10101111 +
1-
04
1<
1=
0@
b110 A
b0 B
b10 C
b0 D
b0 E
1F
0G
b10101111 L

#210000
0!
0=
0F

#215000
1!
0-
b11 .
0<
1=
b0 A
b0 C
1F
b11 M
b10110000 N

#220000
0!
0=
0F

#225000
1!
1$
b11 &
b10110000 (
19
b11 :
b10110000 ;
1=
b100 B
1F

#230000
0!
0=
0F

#235000
1!
0$
b11 '
b10110000 )
14
09
1=
1@
b100 A
b101 B
b11 D
b10110000 E
1F
1G

#240000
0!
0=
0F

#245000
1!
b11 '
b10110000 )
1=
1@
b101 A
1F
b0 J

#250000
0!
0=
0F

#255000
1!
b11 '
b10110000 )
b0 +
1=
1@
b110 B
b1 C
1F
b10110000 J
b0 L

#260000
0!
0=
0F

#265000
1!
b0 '
b0 )
b10110000 +
1-
04
1<
1=
0@
b110 A
b0 B
b10 C
b0 D
b0 E
1F
0G
b10110000 L

#270000
0!
0=
0F

#275000
1!
0-
b100 .
0<
1=
b0 A
b0 C
1F
b100 M
b10110001 N

#280000
0!
0=
0F

#285000
1!
1$
b100 &
b10110001 (
19
b100 :
b10110001 ;
1=
b100 B
1F

#290000
0!
0=
0F

#295000
1!
0$
b100 '
b10110001 )
14
09
1=
1@
b100 A
b101 B
b100 D
b10110001 E
1F
1G

#300000
0!
0=
0F

#305000
1!
b100 '
b10110001 )
1=
1@
b101 A
1F
b0 J

#310000
0!
0=
0F

#315000
1!
b100 '
b10110001 )
b0 +
1=
1@
b110 B
b1 C
1F
b10110001 J
b0 L

#320000
0!
0=
0F

#325000
1!
b0 '
b0 )
b10110001 +
1-
04
1<
1=
0@
b110 A
b0 B
b10 C
b0 D
b0 E
1F
0G
b10110001 L

#330000
0!
0=
0F

#335000
1!
0-
b101 .
0<
1=
b0 A
b0 C
1F
b101 M
b10110010 N

#340000
0!
0=
0F

#345000
1!
1$
b101 &
b10110010 (
19
b101 :
b10110010 ;
1=
b100 B
1F

#350000
0!
0=
0F

#355000
1!
0$
b101 '
b10110010 )
14
09
1=
1@
b100 A
b101 B
b101 D
b10110010 E
1F
1G

#360000
0!
0=
0F

#365000
1!
b101 '
b10110010 )
1=
1@
b101 A
1F
b0 J

#370000
0!
0=
0F

#375000
1!
b101 '
b10110010 )
b0 +
1=
1@
b110 B
b1 C
1F
b10110010 J
b0 L

#380000
0!
0=
0F

#385000
1!
b0 '
b0 )
b10110010 +
1-
04
1<
1=
0@
b110 A
b0 B
b10 C
b0 D
b0 E
1F
0G
b10110010 L

#390000
0!
0=
0F

#395000
1!
0-
b110 .
0<
1=
b0 A
b0 C
1F
b110 M
b10110011 N

#400000
0!
0=
0F

#405000
1!
1$
b110 &
b10110011 (
19
b110 :
b10110011 ;
1=
b100 B
1F

#410000
0!
0=
0F

#415000
1!
0$
b110 '
b10110011 )
14
09
1=
1@
b100 A
b101 B
b110 D
b10110011 E
1F
1G

#420000
0!
0=
0F

#425000
1!
b110 '
b10110011 )
1=
1@
b101 A
1F
b0 J

#430000
0!
0=
0F

#435000
1!
b110 '
b10110011 )
b0 +
1=
1@
b110 B
b1 C
1F
b10110011 J
b0 L

#440000
0!
0=
0F

#445000
1!
b0 '
b0 )
b10110011 +
1-
04
1<
1=
0@
b110 A
b0 B
b10 C
b0 D
b0 E
1F
0G
b10110011 L

#450000
0!
0=
0F

#455000
1!
0-
b111 .
0<
1=
b0 A
b0 C
1F
b111 M
b10110100 N

#460000
0!
0=
0F

#465000
1!
1$
b111 &
b10110100 (
19
b111 :
b10110100 ;
1=
b100 B
1F

#470000
0!
0=
0F

#475000
1!
0$
b111 '
b10110100 )
14
09
1=
1@
b100 A
b101 B
b111 D
b10110100 E
1F
1G

#480000
0!
0=
0F

#485000
1!
b111 '
b10110100 )
1=
1@
b101 A
1F
b0 J

#490000
0!
0=
0F

#495000
1!
b111 '
b10110100 )
b0 +
1=
1@
b110 B
b1 C
1F
b10110100 J
b0 L

#500000
0!
0=
0F

#505000
1!
b0 '
b0 )
b10110100 +
1-
04
1<
1=
0@
b110 A
b0 B
b10 C
b0 D
b0 E
1F
0G
b10110100 L

#510000
0!
0=
0F

#515000
1!
0-
b0 .
0<
1=
b0 A
b0 C
1F
b0 O

#520000
0!
0=
0F

#525000
1!
1#
15
1=
b1 B
1F

#530000
0!
0=
0F

#535000
1!
0#
13
05
1=
1?
b1 A
b10 B
1F
1G

#540000
0!
0=
0F

#545000
1!
1=
1?
b10 A
1F
b10101101 J

#550000
0!
0=
0F

#555000
1!
b10101101 +
1=
1?
b1 C
1F
b10101101 L

#560000
0!
0=
0F

#565000
1!
1=
1?
b11 B
b10 C
1F

#570000
0!
0=
0F

#575000
1!
b10101101 *
1,
03
b10101101 7
18
1=
0?
b11 A
b0 B
b11 C
1F
0G

#580000
0!
0=
0F

#585000
1!
b0 *
0,
b1 .
b0 7
08
1=
b0 A
b0 C
1F
b1 O

#590000
0!
0=
0F

#595000
1!
1#
b1 %
15
b1 6
1=
b1 B
1F

#600000
0!
0=
0F

#605000
1!
0#
b1 '
13
05
1=
1?
b1 A
b10 B
b1 D
1F
1G

#610000
0!
0=
0F

#615000
1!
b1 '
1=
1?
b10 A
1F
b10101110 J

#620000
0!
0=
0F

#625000
1!
b1 '
b10101110 +
1=
1?
b1 C
1F
b10101110 L

#630000
0!
0=
0F

#635000
1!
b1 '
1=
1?
b11 B
b10 C
1F

#640000
0!
0=
0F

#645000
1!
b0 '
b10101110 *
1,
03
b10101110 7
18
1=
0?
b11 A
b0 B
b11 C
b0 D
1F
0G

#650000
0!
0=
0F

#655000
1!
b0 *
0,
b10 .
b0 7
08
1=
b0 A
b0 C
1F
b10 O

#660000
0!
0=
0F

#665000
1!
1#
b10 %
15
b10 6
1=
b1 B
1F

#670000
0!
0=
0F

#675000
1!
0#
b10 '
13
05
1=
1?
b1 A
b10 B
b10 D
1F
1G

#680000
0!
0=
0F

#685000
1!
b10 '
1=
1?
b10 A
1F
b10101111 J

#690000
0!
0=
0F

#695000
1!
b10 '
b10101111 +
1=
1?
b1 C
1F
b10101111 L

#700000
0!
0=
0F

#705000
1!
b10 '
1=
1?
b11 B
b10 C
1F

#710000
0!
0=
0F

#715000
1!
b0 '
b10101111 *
1,
03
b10101111 7
18
1=
0?
b11 A
b0 B
b11 C
b0 D
1F
0G

#720000
0!
0=
0F

#725000
1!
b0 *
0,
b11 .
b0 7
08
1=
b0 A
b0 C
1F
b11 O

#730000
0!
0=
0F

#735000
1!
1#
b11 %
15
b11 6
1=
b1 B
1F

#740000
0!
0=
0F

#745000
1!
0#
b11 '
13
05
1=
1?
b1 A
b10 B
b11 D
1F
1G

#750000
0!
0=
0F

#755000
1!
b11 '
1=
1?
b10 A
1F
b10110000 J

#760000
0!
0=
0F

#765000
1!
b11 '
b10110000 +
1=
1?
b1 C
1F
b10110000 L

#770000
0!
0=
0F

#775000
1!
b11 '
1=
1?
b11 B
b10 C
1F

#780000
0!
0=
0F

#785000
1!
b0 '
b10110000 *
1,
03
b10110000 7
18
1=
0?
b11 A
b0 B
b11 C
b0 D
1F
0G

#790000
0!
0=
0F

#795000
1!
b0 *
0,
b100 .
b0 7
08
1=
b0 A
b0 C
1F
b100 O

#800000
0!
0=
0F

#805000
1!
1#
b100 %
15
b100 6
1=
b1 B
1F

#810000
0!
0=
0F

#815000
1!
0#
b100 '
13
05
1=
1?
b1 A
b10 B
b100 D
1F
1G

#820000
0!
0=
0F

#825000
1!
b100 '
1=
1?
b10 A
1F
b10110001 J

#830000
0!
0=
0F

#835000
1!
b100 '
b10110001 +
1=
1?
b1 C
1F
b10110001 L

#840000
0!
0=
0F

#845000
1!
b100 '
1=
1?
b11 B
b10 C
1F

#850000
0!
0=
0F

#855000
1!
b0 '
b10110001 *
1,
03
b10110001 7
18
1=
0?
b11 A
b0 B
b11 C
b0 D
1F
0G

#860000
0!
0=
0F

#865000
1!
b0 *
0,
b101 .
b0 7
08
1=
b0 A
b0 C
1F
b101 O

#870000
0!
0=
0F

#875000
1!
1#
b101 %
15
b101 6
1=
b1 B
1F

#880000
0!
0=
0F

#885000
1!
0#
b101 '
13
05
1=
1?
b1 A
b10 B
b101 D
1F
1G

#890000
0!
0=
0F

#895000
1!
b101 '
1=
1?
b10 A
1F
b10110010 J

#900000
0!
0=
0F

#905000
1!
b101 '
b10110010 +
1=
1?
b1 C
1F
b10110010 L

#910000
0!
0=
0F

#915000
1!
b101 '
1=
1?
b11 B
b10 C
1F

#920000
0!
0=
0F

#925000
1!
b0 '
b10110010 *
1,
03
b10110010 7
18
1=
0?
b11 A
b0 B
b11 C
b0 D
1F
0G

#930000
0!
0=
0F

#935000
1!
b0 *
0,
b110 .
b0 7
08
1=
b0 A
b0 C
1F
b110 O

#940000
0!
0=
0F

#945000
1!
1#
b110 %
15
b110 6
1=
b1 B
1F

#950000
0!
0=
0F

#955000
1!
0#
b110 '
13
05
1=
1?
b1 A
b10 B
b110 D
1F
1G

#960000
0!
0=
0F

#965000
1!
b110 '
1=
1?
b10 A
1F
b10110011 J

#970000
0!
0=
0F

#975000
1!
b110 '
b10110011 +
1=
1?
b1 C
1F
b10110011 L

#980000
0!
0=
0F

#985000
1!
b110 '
1=
1?
b11 B
b10 C
1F

#990000
0!
0=
0F

#995000
1!
b0 '
b10110011 *
1,
03
b10110011 7
18
1=
0?
b11 A
b0 B
b11 C
b0 D
1F
0G

#1000000
0!
0=
0F

#1005000
1!
b0 *
0,
b111 .
b0 7
08
1=
b0 A
b0 C
1F
b111 O

#1010000
0!
0=
0F

#1015000
1!
1#
b111 %
15
b111 6
1=
b1 B
1F

#1020000
0!
0=
0F

#1025000
1!
0#
b111 '
13
05
1=
1?
b1 A
b10 B
b111 D
1F
1G

#1030000
0!
0=
0F

#1035000
1!
b111 '
1=
1?
b10 A
1F
b10110100 J

#1040000
0!
0=
0F

#1045000
1!
b111 '
b10110100 +
1=
1?
b1 C
1F
b10110100 L

#1050000
0!
0=
0F

#1055000
1!
b111 '
1=
1?
b11 B
b10 C
1F

#1060000
0!
0=
0F

#1065000
1!
b0 '
b10110100 *
1,
03
b10110100 7
18
1=
0?
b11 A
b0 B
b11 C
b0 D
1F
0G

#1070000
0!
0=
0F

#1075000
1!
b0 *
0,
b0 .
b10 0
b0 7
08
1=
b0 A
b0 C
1F
b101 M
b11000110 N

#1080000
0!
0=
0F

#1085000
1!
1$
b101 &
b11000110 (
19
b101 :
b11000110 ;
1=
b100 B
1F

#1090000
0!
0=
0F

#1095000
1!
0$
b101 '
b11000110 )
14
09
1=
1@
b100 A
b101 B
b101 D
b11000110 E
1F
1G

#1100000
0!
0=
0F

#1105000
1!
b101 '
b11000110 )
1=
1@
b101 A
1F
b10110010 J

#1110000
0!
0=
0F

#1115000
1!
b101 '
b11000110 )
b10110010 +
1=
1@
b110 B
b1 C
1F
b11000110 J
b10110010 L

#1120000
0!
0=
0F

#1125000
1!
b0 '
b0 )
b11000110 +
1-
04
1<
1=
0@
b110 A
b0 B
b10 C
b0 D
b0 E
1F
0G
b11000110 L

#1130000
0!
0=
0F

#1135000
1!
0-
0<
1=
b0 A
b0 C
1F
b101 O

#1140000
0!
0=
0F

#1145000
1!
1#
b101 %
15
b101 6
1=
b1 B
1F

#1150000
0!
0=
0F

#1155000
1!
0#
b101 '
13
05
1=
1?
b1 A
b10 B
b101 D
1F
1G

#1160000
0!
0=
0F

#1165000
1!
b101 '
1=
1?
b10 A
1F

#1170000
0!
0=
0F

#1175000
1!
b101 '
1=
1?
b1 C
1F

#1180000
0!
0=
0F

#1185000
1!
b101 '
1=
1?
b11 B
b10 C
1F

#1190000
0!
0=
0F

#1195000
1!
b0 '
b11000110 *
1,
03
b11000110 7
18
1=
0?
b11 A
b0 B
b11 C
b0 D
1F
0G

#1200000
0!
0=
0F

#1205000
1!
b0 *
0,
b1 .
b0 7
08
1=
b0 A
b0 C
1F
b111 M
b1011101 N

#1210000
0!
0=
0F

#1215000
1!
1$
b111 &
b1011101 (
19
b111 :
b1011101 ;
1=
b100 B
1F

#1220000
0!
0=
0F

#1225000
1!
0$
b111 '
b1011101 )
14
09
1=
1@
b100 A
b101 B
b111 D
b1011101 E
1F
1G

#1230000
0!
0=
0F

#1235000
1!
b111 '
b1011101 )
1=
1@
b101 A
1F
b10110100 J

#1240000
0!
0=
0F

#1245000
1!
b111 '
b1011101 )
b10110100 +
1=
1@
b110 B
b1 C
1F
b1011101 J
b10110100 L

#1250000
0!
0=
0F

#1255000
1!
b0 '
b0 )
b1011101 +
1-
04
1<
1=
0@
b110 A
b0 B
b10 C
b0 D
b0 E
1F
0G
b1011101 L

#1260000
0!
0=
0F

#1265000
1!
0-
0<
1=
b0 A
b0 C
1F
b111 O

#1270000
0!
0=
0F

#1275000
1!
1#
b111 %
15
b111 6
1=
b1 B
1F

#1280000
0!
0=
0F

#1285000
1!
0#
b111 '
13
05
1=
1?
b1 A
b10 B
b111 D
1F
1G

#1290000
0!
0=
0F

#1295000
1!
b111 '
1=
1?
b10 A
1F

#1300000
0!
0=
0F

#1305000
1!
b111 '
1=
1?
b1 C
1F

#1310000
0!
0=
0F

#1315000
1!
b111 '
1=
1?
b11 B
b10 C
1F

#1320000
0!
0=
0F

#1325000
1!
b0 '
b1011101 *
1,
03
b1011101 7
18
1=
0?
b11 A
b0 B
b11 C
b0 D
1F
0G

#1330000
0!
0=
0F

#1335000
1!
b0 *
0,
b10 .
b0 7
08
1=
b0 A
b0 C
1F
b11001100 N

#1340000
0!
0=
0F

#1345000
1!
1$
b11001100 (
19
b11001100 ;
1=
b100 B
1F

#1350000
0!
0=
0F

#1355000
1!
0$
b111 '
b11001100 )
14
09
1=
1@
b100 A
b101 B
b111 D
b11001100 E
1F
1G

#1360000
0!
0=
0F

#1365000
1!
b111 '
b11001100 )
1=
1@
b101 A
1F

#1370000
0!
0=
0F

#1375000
1!
b111 '
b11001100 )
1=
1@
b110 B
b1 C
1F
b11001100 J

#1380000
0!
0=
0F

#1385000
1!
b0 '
b0 )
b11001100 +
1-
04
1<
1=
0@
b110 A
b0 B
b10 C
b0 D
b0 E
1F
0G
b11001100 L

#1390000
0!
0=
0F

#1395000
1!
0-
0<
1=
b0 A
b0 C
1F

#1400000
0!
0=
0F

#1405000
1!
1#
15
1=
b1 B
1F

#1410000
0!
0=
0F

#1415000
1!
0#
b111 '
13
05
1=
1?
b1 A
b10 B
b111 D
1F
1G

#1420000
0!
0=
0F

#1425000
1!
b111 '
1=
1?
b10 A
1F

#1430000
0!
0=
0F

#1435000
1!
b111 '
1=
1?
b1 C
1F

#1440000
0!
0=
0F

#1445000
1!
b111 '
1=
1?
b11 B
b10 C
1F

#1450000
0!
0=
0F

#1455000
1!
b0 '
b11001100 *
1,
03
b11001100 7
18
1=
0?
b11 A
b0 B
b11 C
b0 D
1F
0G

#1460000
0!
0=
0F

#1465000
1!
b0 *
0,
b11 .
b0 7
08
1=
b0 A
b0 C
1F
b101 M
b10010011 N

#1470000
0!
0=
0F

#1475000
1!
1$
b101 &
b10010011 (
19
b101 :
b10010011 ;
1=
b100 B
1F

#1480000
0!
0=
0F

#1485000
1!
0$
b101 '
b10010011 )
14
09
1=
1@
b100 A
b101 B
b101 D
b10010011 E
1F
1G

#1490000
0!
0=
0F

#1495000
1!
b101 '
b10010011 )
1=
1@
b101 A
1F
b11000110 J

#1500000
0!
0=
0F

#1505000
1!
b101 '
b10010011 )
b11000110 +
1=
1@
b110 B
b1 C
1F
b10010011 J
b11000110 L

#1510000
0!
0=
0F

#1515000
1!
b0 '
b0 )
b10010011 +
1-
04
1<
1=
0@
b110 A
b0 B
b10 C
b0 D
b0 E
1F
0G
b10010011 L

#1520000
0!
0=
0F

#1525000
1!
0-
0<
1=
b0 A
b0 C
1F
b101 O

#1530000
0!
0=
0F

#1535000
1!
1#
b101 %
15
b101 6
1=
b1 B
1F

#1540000
0!
0=
0F

#1545000
1!
0#
b101 '
13
05
1=
1?
b1 A
b10 B
b101 D
1F
1G

#1550000
0!
0=
0F

#1555000
1!
b101 '
1=
1?
b10 A
1F

#1560000
0!
0=
0F

#1565000
1!
b101 '
1=
1?
b1 C
1F

#1570000
0!
0=
0F

#1575000
1!
b101 '
1=
1?
b11 B
b10 C
1F

#1580000
0!
0=
0F

#1585000
1!
b0 '
b10010011 *
1,
03
b10010011 7
18
1=
0?
b11 A
b0 B
b11 C
b0 D
1F
0G

#1590000
0!
0=
0F

#1595000
1!
b0 *
0,
b100 .
b0 7
08
1=
b0 A
b0 C
1F
b111 M
b11110101 N

#1600000
0!
0=
0F

#1605000
1!
1$
b111 &
b11110101 (
19
b111 :
b11110101 ;
1=
b100 B
1F

#1610000
0!
0=
0F

#1615000
1!
0$
b111 '
b11110101 )
14
09
1=
1@
b100 A
b101 B
b111 D
b11110101 E
1F
1G

#1620000
0!
0=
0F

#1625000
1!
b111 '
b11110101 )
1=
1@
b101 A
1F
b11001100 J

#1630000
0!
0=
0F

#1635000
1!
b111 '
b11110101 )
b11001100 +
1=
1@
b110 B
b1 C
1F
b11110101 J
b11001100 L

#1640000
0!
0=
0F

#1645000
1!
b0 '
b0 )
b11110101 +
1-
04
1<
1=
0@
b110 A
b0 B
b10 C
b0 D
b0 E
1F
0G
b11110101 L

#1650000
0!
0=
0F

#1655000
1!
0-
0<
1=
b0 A
b0 C
1F
b111 O

#1660000
0!
0=
0F

#1665000
1!
1#
b111 %
15
b111 6
1=
b1 B
1F

#1670000
0!
0=
0F

#1675000
1!
0#
b111 '
13
05
1=
1?
b1 A
b10 B
b111 D
1F
1G

#1680000
0!
0=
0F

#1685000
1!
b111 '
1=
1?
b10 A
1F

#1690000
0!
0=
0F

#1695000
1!
b111 '
1=
1?
b1 C
1F

#1700000
0!
0=
0F

#1705000
1!
b111 '
1=
1?
b11 B
b10 C
1F

#1710000
0!
0=
0F

#1715000
1!
b0 '
b11110101 *
1,
03
b11110101 7
18
1=
0?
b11 A
b0 B
b11 C
b0 D
1F
0G

#1720000
0!
0=
0F

#1725000
1!
b0 *
0,
b101 .
b0 7
08
1=
b0 A
b0 C
1F
b11 M
b10100100 N

#1730000
0!
0=
0F

#1735000
1!
1$
b11 &
b10100100 (
19
b11 :
b10100100 ;
1=
b100 B
1F

#1740000
0!
0=
0F

#1745000
1!
0$
b11 '
b10100100 )
14
09
1=
1@
b100 A
b101 B
b11 D
b10100100 E
1F
1G

#1750000
0!
0=
0F

#1755000
1!
b11 '
b10100100 )
1=
1@
b101 A
1F
b10110000 J

#1760000
0!
0=
0F

#1765000
1!
b11 '
b10100100 )
b10110000 +
1=
1@
b110 B
b1 C
1F
b10100100 J
b10110000 L

#1770000
0!
0=
0F

#1775000
1!
b0 '
b0 )
b10100100 +
1-
04
1<
1=
0@
b110 A
b0 B
b10 C
b0 D
b0 E
1F
0G
b10100100 L

#1780000
0!
0=
0F

#1785000
1!
0-
0<
1=
b0 A
b0 C
1F
b11 O

#1790000
0!
0=
0F

#1795000
1!
1#
b11 %
15
b11 6
1=
b1 B
1F

#1800000
0!
0=
0F

#1805000
1!
0#
b11 '
13
05
1=
1?
b1 A
b10 B
b11 D
1F
1G

#1810000
0!
0=
0F

#1815000
1!
b11 '
1=
1?
b10 A
1F

#1820000
0!
0=
0F

#1825000
1!
b11 '
1=
1?
b1 C
1F

#1830000
0!
0=
0F

#1835000
1!
b11 '
1=
1?
b11 B
b10 C
1F

#1840000
0!
0=
0F

#1845000
1!
b0 '
b10100100 *
1,
03
b10100100 7
18
1=
0?
b11 A
b0 B
b11 C
b0 D
1F
0G

#1850000
0!
0=
0F

#1855000
1!
b0 *
0,
b110 .
b0 7
08
1=
b0 A
b0 C
1F
b10 M
b11110000 N

#1860000
0!
0=
0F

#1865000
1!
1$
b10 &
b11110000 (
19
b10 :
b11110000 ;
1=
b100 B
1F

#1870000
0!
0=
0F

#1875000
1!
0$
b10 '
b11110000 )
14
09
1=
1@
b100 A
b101 B
b10 D
b11110000 E
1F
1G

#1880000
0!
0=
0F

#1885000
1!
b10 '
b11110000 )
1=
1@
b101 A
1F
b10101111 J

#1890000
0!
0=
0F

#1895000
1!
b10 '
b11110000 )
b10101111 +
1=
1@
b110 B
b1 C
1F
b11110000 J
b10101111 L

#1900000
0!
0=
0F

#1905000
1!
b0 '
b0 )
b11110000 +
1-
04
1<
1=
0@
b110 A
b0 B
b10 C
b0 D
b0 E
1F
0G
b11110000 L

#1910000
0!
0=
0F

#1915000
1!
0-
0<
1=
b0 A
b0 C
1F
b10 O

#1920000
0!
0=
0F

#1925000
1!
1#
b10 %
15
b10 6
1=
b1 B
1F

#1930000
0!
0=
0F

#1935000
1!
0#
b10 '
13
05
1=
1?
b1 A
b10 B
b10 D
1F
1G

#1940000
0!
0=
0F

#1945000
1!
b10 '
1=
1?
b10 A
1F

#1950000
0!
0=
0F

#1955000
1!
b10 '
1=
1?
b1 C
1F

#1960000
0!
0=
0F

#1965000
1!
b10 '
1=
1?
b11 B
b10 C
1F

#1970000
0!
0=
0F

#1975000
1!
b0 '
b11110000 *
1,
03
b11110000 7
18
1=
0?
b11 A
b0 B
b11 C
b0 D
1F
0G

#1980000
0!
0=
0F

#1985000
1!
b0 *
0,
b111 .
b0 7
08
1=
b0 A
b0 C
1F
b100 M
b1100011 N

#1990000
0!
0=
0F

#1995000
1!
1$
b100 &
b1100011 (
19
b100 :
b1100011 ;
1=
b100 B
1F

#2000000
0!
0=
0F

#2005000
1!
0$
b100 '
b1100011 )
14
09
1=
1@
b100 A
b101 B
b100 D
b1100011 E
1F
1G

#2010000
0!
0=
0F

#2015000
1!
b100 '
b1100011 )
1=
1@
b101 A
1F
b10110001 J

#2020000
0!
0=
0F

#2025000
1!
b100 '
b1100011 )
b10110001 +
1=
1@
b110 B
b1 C
1F
b1100011 J
b10110001 L

#2030000
0!
0=
0F

#2035000
1!
b0 '
b0 )
b1100011 +
1-
04
1<
1=
0@
b110 A
b0 B
b10 C
b0 D
b0 E
1F
0G
b1100011 L

#2040000
0!
0=
0F

#2045000
1!
0-
0<
1=
b0 A
b0 C
1F
b100 O

#2050000
0!
0=
0F

#2055000
1!
1#
b100 %
15
b100 6
1=
b1 B
1F

#2060000
0!
0=
0F

#2065000
1!
0#
b100 '
13
05
1=
1?
b1 A
b10 B
b100 D
1F
1G

#2070000
0!
0=
0F

#2075000
1!
b100 '
1=
1?
b10 A
1F

#2080000
0!
0=
0F

#2085000
1!
b100 '
1=
1?
b1 C
1F

#2090000
0!
0=
0F

#2095000
1!
b100 '
1=
1?
b11 B
b10 C
1F

#2100000
0!
0=
0F

#2105000
1!
b0 '
b1100011 *
1,
03
b1100011 7
18
1=
0?
b11 A
b0 B
b11 C
b0 D
1F
0G

#2110000
0!
0=
0F

#2115000
1!
b0 *
0,
b1000 .
b0 7
08
1=
b0 A
b0 C
1F
b101 M
b11000000 N

#2120000
0!
0=
0F

#2125000
1!
1$
b101 &
b11000000 (
19
b101 :
b11000000 ;
1=
b100 B
1F

#2130000
0!
0=
0F

#2135000
1!
0$
b101 '
b11000000 )
14
09
1=
1@
b100 A
b101 B
b101 D
b11000000 E
1F
1G

#2140000
0!
0=
0F

#2145000
1!
b101 '
b11000000 )
1=
1@
b101 A
1F
b10010011 J

#2150000
0!
0=
0F

#2155000
1!
b101 '
b11000000 )
b10010011 +
1=
1@
b110 B
b1 C
1F
b11000000 J
b10010011 L

#2160000
0!
0=
0F

#2165000
1!
b0 '
b0 )
b11000000 +
1-
04
1<
1=
0@
b110 A
b0 B
b10 C
b0 D
b0 E
1F
0G
b11000000 L

#2170000
0!
0=
0F

#2175000
1!
0-
0<
1=
b0 A
b0 C
1F
b101 O

#2180000
0!
0=
0F

#2185000
1!
1#
b101 %
15
b101 6
1=
b1 B
1F

#2190000
0!
0=
0F

#2195000
1!
0#
b101 '
13
05
1=
1?
b1 A
b10 B
b101 D
1F
1G

#2200000
0!
0=
0F

#2205000
1!
b101 '
1=
1?
b10 A
1F

#2210000
0!
0=
0F

#2215000
1!
b101 '
1=
1?
b1 C
1F

#2220000
0!
0=
0F

